<svg width="28" height="24" viewBox="0 0 28 24" fill="none" xmlns="http://www.w3.org/2000/svg">
<path d="M27.9189 2.16302L23.6939 22.088C23.3749 23.494 22.5439 23.844 21.3629 23.182L14.9249 18.438L11.8189 21.426C11.4749 21.77 11.1879 22.057 10.5249 22.057L10.9879 15.501L22.9189 4.72002C23.4379 4.25802 22.8059 4.00102 22.1129 4.46402L7.36295 13.752L1.01295 11.764C-0.368054 11.333 -0.393054 10.383 1.30095 9.72002L26.1379 0.151024C27.2879 -0.279976 28.2939 0.407024 27.9189 2.16402V2.16302Z" fill="black"/>
</svg>
